%YAML 1.1
%TAG !u! tag:unity3d.com,2011:
--- !u!1001 &8229160733256006707
PrefabInstance:
  m_ObjectHideFlags: 0
  serializedVersion: 2
  m_Modification:
    m_TransformParent: {fileID: 0}
    m_Modifications:
    - target: {fileID: -8712996028288085176, guid: 774cea3c647d47c44b10e7581b0c86b6, type: 3}
      propertyPath: m_Layer
      value: 26
      objectReference: {fileID: 0}
    - target: {fileID: -8712996028288085176, guid: 774cea3c647d47c44b10e7581b0c86b6, type: 3}
      propertyPath: m_StaticEditorFlags
      value: 1
      objectReference: {fileID: 0}
    - target: {fileID: -8679921383154817045, guid: 774cea3c647d47c44b10e7581b0c86b6, type: 3}
      propertyPath: m_RootOrder
      value: 0
      objectReference: {fileID: 0}
    - target: {fileID: -8679921383154817045, guid: 774cea3c647d47c44b10e7581b0c86b6, type: 3}
      propertyPath: m_LocalScale.x
      value: -1.221
      objectReference: {fileID: 0}
    - target: {fileID: -8679921383154817045, guid: 774cea3c647d47c44b10e7581b0c86b6, type: 3}
      propertyPath: m_LocalScale.y
      value: 1.221
      objectReference: {fileID: 0}
    - target: {fileID: -8679921383154817045, guid: 774cea3c647d47c44b10e7581b0c86b6, type: 3}
      propertyPath: m_LocalScale.z
      value: 1.221
      objectReference: {fileID: 0}
    - target: {fileID: -8679921383154817045, guid: 774cea3c647d47c44b10e7581b0c86b6, type: 3}
      propertyPath: m_LocalPosition.x
      value: 161.97333
      objectReference: {fileID: 0}
    - target: {fileID: -8679921383154817045, guid: 774cea3c647d47c44b10e7581b0c86b6, type: 3}
      propertyPath: m_LocalPosition.y
      value: 80.04
      objectReference: {fileID: 0}
    - target: {fileID: -8679921383154817045, guid: 774cea3c647d47c44b10e7581b0c86b6, type: 3}
      propertyPath: m_LocalPosition.z
      value: 169.91
      objectReference: {fileID: 0}
    - target: {fileID: -8679921383154817045, guid: 774cea3c647d47c44b10e7581b0c86b6, type: 3}
      propertyPath: m_LocalRotation.w
      value: 0
      objectReference: {fileID: 0}
    - target: {fileID: -8679921383154817045, guid: 774cea3c647d47c44b10e7581b0c86b6, type: 3}
      propertyPath: m_LocalRotation.x
      value: 0
      objectReference: {fileID: 0}
    - target: {fileID: -8679921383154817045, guid: 774cea3c647d47c44b10e7581b0c86b6, type: 3}
      propertyPath: m_LocalRotation.y
      value: 1
      objectReference: {fileID: 0}
    - target: {fileID: -8679921383154817045, guid: 774cea3c647d47c44b10e7581b0c86b6, type: 3}
      propertyPath: m_LocalRotation.z
      value: 0
      objectReference: {fileID: 0}
    - target: {fileID: -8679921383154817045, guid: 774cea3c647d47c44b10e7581b0c86b6, type: 3}
      propertyPath: m_LocalEulerAnglesHint.x
      value: 0
      objectReference: {fileID: 0}
    - target: {fileID: -8679921383154817045, guid: 774cea3c647d47c44b10e7581b0c86b6, type: 3}
      propertyPath: m_LocalEulerAnglesHint.y
      value: 0
      objectReference: {fileID: 0}
    - target: {fileID: -8679921383154817045, guid: 774cea3c647d47c44b10e7581b0c86b6, type: 3}
      propertyPath: m_LocalEulerAnglesHint.z
      value: 0
      objectReference: {fileID: 0}
    - target: {fileID: -7875346817618318805, guid: 774cea3c647d47c44b10e7581b0c86b6, type: 3}
      propertyPath: m_StitchLightmapSeams
      value: 0
      objectReference: {fileID: 0}
    - target: {fileID: -7875346817618318805, guid: 774cea3c647d47c44b10e7581b0c86b6, type: 3}
      propertyPath: m_Materials.Array.data[0]
      value: 
      objectReference: {fileID: 2100000, guid: 7736151b20cb1e845aa8a9e7a95e0ca9, type: 2}
    - target: {fileID: -7511558181221131132, guid: 774cea3c647d47c44b10e7581b0c86b6, type: 3}
      propertyPath: m_StitchLightmapSeams
      value: 0
      objectReference: {fileID: 0}
    - target: {fileID: -7511558181221131132, guid: 774cea3c647d47c44b10e7581b0c86b6, type: 3}
      propertyPath: m_Materials.Array.data[0]
      value: 
      objectReference: {fileID: 2100000, guid: 7736151b20cb1e845aa8a9e7a95e0ca9, type: 2}
    - target: {fileID: -5088535864837306217, guid: 774cea3c647d47c44b10e7581b0c86b6, type: 3}
      propertyPath: m_Layer
      value: 26
      objectReference: {fileID: 0}
    - target: {fileID: -5088535864837306217, guid: 774cea3c647d47c44b10e7581b0c86b6, type: 3}
      propertyPath: m_StaticEditorFlags
      value: 1
      objectReference: {fileID: 0}
    - target: {fileID: 919132149155446097, guid: 774cea3c647d47c44b10e7581b0c86b6, type: 3}
      propertyPath: m_Name
      value: vent_cap_01 (10)
      objectReference: {fileID: 0}
    - target: {fileID: 919132149155446097, guid: 774cea3c647d47c44b10e7581b0c86b6, type: 3}
      propertyPath: m_Layer
      value: 26
      objectReference: {fileID: 0}
    - target: {fileID: 919132149155446097, guid: 774cea3c647d47c44b10e7581b0c86b6, type: 3}
      propertyPath: m_StaticEditorFlags
      value: 1
      objectReference: {fileID: 0}
    - target: {fileID: 1888374392040504603, guid: 774cea3c647d47c44b10e7581b0c86b6, type: 3}
      propertyPath: m_Layer
      value: 26
      objectReference: {fileID: 0}
    - target: {fileID: 1888374392040504603, guid: 774cea3c647d47c44b10e7581b0c86b6, type: 3}
      propertyPath: m_StaticEditorFlags
      value: 1
      objectReference: {fileID: 0}
    - target: {fileID: 3066723989567313642, guid: 774cea3c647d47c44b10e7581b0c86b6, type: 3}
      propertyPath: m_Layer
      value: 26
      objectReference: {fileID: 0}
    - target: {fileID: 3066723989567313642, guid: 774cea3c647d47c44b10e7581b0c86b6, type: 3}
      propertyPath: m_StaticEditorFlags
      value: 1
      objectReference: {fileID: 0}
    - target: {fileID: 5956226088647427494, guid: 774cea3c647d47c44b10e7581b0c86b6, type: 3}
      propertyPath: m_StitchLightmapSeams
      value: 0
      objectReference: {fileID: 0}
    - target: {fileID: 5956226088647427494, guid: 774cea3c647d47c44b10e7581b0c86b6, type: 3}
      propertyPath: m_Materials.Array.data[0]
      value: 
      objectReference: {fileID: 2100000, guid: 7736151b20cb1e845aa8a9e7a95e0ca9, type: 2}
    - target: {fileID: 7359999205954055871, guid: 774cea3c647d47c44b10e7581b0c86b6, type: 3}
      propertyPath: m_Layer
      value: 26
      objectReference: {fileID: 0}
    - target: {fileID: 7359999205954055871, guid: 774cea3c647d47c44b10e7581b0c86b6, type: 3}
      propertyPath: m_StaticEditorFlags
      value: 1
      objectReference: {fileID: 0}
    m_RemovedComponents: []
  m_SourcePrefab: {fileID: 100100000, guid: 774cea3c647d47c44b10e7581b0c86b6, type: 3}
--- !u!23 &2349504649086613909 stripped
MeshRenderer:
  m_CorrespondingSourceObject: {fileID: 5956226088647427494, guid: 774cea3c647d47c44b10e7581b0c86b6, type: 3}
  m_PrefabInstance: {fileID: 8229160733256006707}
  m_PrefabAsset: {fileID: 0}
--- !u!23 &6955528000071423512 stripped
MeshRenderer:
  m_CorrespondingSourceObject: {fileID: -7875346817618318805, guid: 774cea3c647d47c44b10e7581b0c86b6, type: 3}
  m_PrefabInstance: {fileID: 8229160733256006707}
  m_PrefabAsset: {fileID: 0}
--- !u!23 &7346021592074526903 stripped
MeshRenderer:
  m_CorrespondingSourceObject: {fileID: -7511558181221131132, guid: 774cea3c647d47c44b10e7581b0c86b6, type: 3}
  m_PrefabInstance: {fileID: 8229160733256006707}
  m_PrefabAsset: {fileID: 0}
--- !u!1 &9147571463197032802 stripped
GameObject:
  m_CorrespondingSourceObject: {fileID: 919132149155446097, guid: 774cea3c647d47c44b10e7581b0c86b6, type: 3}
  m_PrefabInstance: {fileID: 8229160733256006707}
  m_PrefabAsset: {fileID: 0}
--- !u!65 &2689138011798501743
BoxCollider:
  m_ObjectHideFlags: 0
  m_CorrespondingSourceObject: {fileID: 0}
  m_PrefabInstance: {fileID: 0}
  m_PrefabAsset: {fileID: 0}
  m_GameObject: {fileID: 9147571463197032802}
  m_Material: {fileID: 0}
  m_IsTrigger: 0
  m_Enabled: 1
  serializedVersion: 2
  m_Size: {x: 0.72329223, y: 0.9533771, z: 0.72329223}
  m_Center: {x: -0.0042040944, y: 0.47668856, z: -0.006315917}
--- !u!205 &5021642453095573781
LODGroup:
  m_ObjectHideFlags: 0
  m_CorrespondingSourceObject: {fileID: 0}
  m_PrefabInstance: {fileID: 0}
  m_PrefabAsset: {fileID: 0}
  m_GameObject: {fileID: 9147571463197032802}
  serializedVersion: 2
  m_LocalReferencePoint: {x: -0.0042040944, y: 0.47668856, z: -0.006315917}
  m_Size: 0.9533771
  m_FadeMode: 0
  m_AnimateCrossFading: 0
  m_LastLODIsBillboard: 0
  m_LODs:
  - screenRelativeHeight: 0.04
    fadeTransitionWidth: 0
    renderers:
    - renderer: {fileID: 7346021592074526903}
  - screenRelativeHeight: 0.02
    fadeTransitionWidth: 0
    renderers:
    - renderer: {fileID: 6955528000071423512}
  - screenRelativeHeight: 0.006838767
    fadeTransitionWidth: 0
    renderers:
    - renderer: {fileID: 2349504649086613909}
  m_Enabled: 1
