%YAML 1.1
%TAG !u! tag:unity3d.com,2011:
--- !u!850595691 &850595691
LightingSettings:
  serializedVersion: 4
  m_ObjectHideFlags: 0
  m_CorrespondingSourceObject: {fileID: 0}
  m_PrefabInstance: {fileID: 0}
  m_PrefabAsset: {fileID: 0}
  m_Name:
  m_GIWorkflowMode: 1
  m_EnableBakedLightmaps: 1
  m_EnableRealtimeLightmaps: 0
  m_RealtimeEnvironmentLighting: 0
  m_BounceScale: 1
  m_AlbedoBoost: 2.55
  m_IndirectOutputScale: 1.99
  m_UsingShadowmask: 0
  m_BakeBackend: 0
  m_LightmapMaxSize: 0
  m_BakeResolution: 0
  m_Padding: 0
  m_LightmapCompression: 0
  m_AO: 0
  m_AOMaxDistance: 0
  m_CompAOExponent: 0
  m_CompAOExponentDirect: 0
  m_ExtractAO: 0
  m_MixedBakeMode: 0
  m_LightmapsBakeMode: 0
  m_FilterMode: 0
  m_LightmapParameters: {fileID: 0}
  m_ExportTrainingData: 0
  m_TrainingDataDestination:
  m_RealtimeResolution: 0
  m_ForceWhiteAlbedo: 0
  m_ForceUpdates: 0
  m_FinalGather: 0
  m_FinalGatherRayCount: 0
  m_FinalGatherFiltering: 0
  m_PVRCulling: 0
  m_PVRSampling: 0
  m_PVRDirectSampleCount: 0
  m_PVRSampleCount: 0
  m_PVREnvironmentSampleCount: 0
  m_PVREnvironmentReferencePointCount: 0
  m_LightProbeSampleCountMultiplier: 0
  m_PVRBounces: 0
  m_PVRMinBounces: 0
  m_PVREnvironmentMIS: 0
  m_PVRFilteringMode: 0
  m_PVRDenoiserTypeDirect: 0
  m_PVRDenoiserTypeIndirect: 0
  m_PVRDenoiserTypeAO: 0
  m_PVRFilterTypeDirect: 0
  m_PVRFilterTypeIndirect: 0
  m_PVRFilterTypeAO: 0
  m_PVRFilteringGaussRadiusDirect: 0
  m_PVRFilteringGaussRadiusIndirect: 0
  m_PVRFilteringGaussRadiusAO: 0
  m_PVRFilteringAtrousPositionSigmaDirect: 0
  m_PVRFilteringAtrousPositionSigmaIndirect: 0
  m_PVRFilteringAtrousPositionSigmaAO: 0
  m_PVRTiledBaking: 0
